<?xml version="1.0" encoding="UTF-8"?>
<svg width="397px" height="44px" viewBox="0 0 397 44" version="1.1" xmlns="http://www.w3.org/2000/svg" xmlns:xlink="http://www.w3.org/1999/xlink">
    <!-- Generator: Sketch 54.1 (76490) - https://sketchapp.com -->
    <title>Logo 1@2x</title>
    <desc>Created with Sketch.</desc>
    <g id="Page-1" stroke="none" stroke-width="1" fill="none" fill-rule="evenodd">
        <g id="Watchy-logo" transform="translate(-103.000000, -204.000000)">
            <g id="Logo-1" transform="translate(102.500000, 184.000000)">
                <text id="WATCH" font-family="Poppins-Bold, Poppins" font-size="60" font-weight="bold" letter-spacing="14.5" fill="#FFFFFF">
                    <tspan x="0.31" y="63">WATC</tspan>
                    <tspan x="246.83" y="63">H</tspan>
                </text>
                <text id="O" font-family="Poppins-Bold, Poppins" font-size="60" font-weight="bold" letter-spacing="14.5" fill="#FFFFFF">
                    <tspan x="351.588457" y="63">O</tspan>
                </text>
                <g id="Group" transform="translate(305.418457, 21.000000)">
                    <polygon id="Path" fill="#EE3838" points="17.9009094 23.9360657 40.1973432 1.42108547e-14 20.549881 26.2140503"></polygon>
                    <path d="M19.1661207,29.3983059 C16.7794806,29.3983059 14.8447266,27.4635518 14.8447266,25.0769117 C14.8447266,22.6902716 16.7794806,20.7555176 19.1661207,20.7555176 C21.5527608,20.7555176 23.4875149,22.6902716 23.4875149,25.0769117 C23.4875149,27.4635518 21.5527608,29.3983059 19.1661207,29.3983059 Z M19.1661207,27.6373976 C20.580238,27.6373976 21.7266066,26.491029 21.7266066,25.0769117 C21.7266066,23.6627945 20.580238,22.5164259 19.1661207,22.5164259 C17.7520034,22.5164259 16.6056349,23.6627945 16.6056349,25.0769117 C16.6056349,26.491029 17.7520034,27.6373976 19.1661207,27.6373976 Z M19.1661207,26.8947788 C18.2025878,26.8947788 17.4214901,26.113681 17.4214901,25.1501482 C17.4214901,24.1866153 18.2025878,23.4055176 19.1661207,23.4055176 C20.1296536,23.4055176 20.9107513,24.1866153 20.9107513,25.1501482 C20.9107513,26.113681 20.1296536,26.8947788 19.1661207,26.8947788 Z" id="Combined-Shape" fill="#FFFFFF"></path>
                    <path d="M21.8671112,21.713501 L4.08562073e-14,-8.8817842e-15 L15.3352661,27.0809937 C15.1766154,25.111472 15.53243,23.640487 16.40271,22.6680388 C17.2729899,21.6955906 19.094457,21.3774113 21.8671112,21.713501 Z" id="Path-4" fill="#FFFFFF"></path>
                    <path d="M14.9798139,41.9055176 L14.8288574,27.2521973 C15.3886922,28.5111694 16.3791402,29.3306885 17.8002014,29.7107544 C19.4998678,30.0351766 20.8086695,29.8176168 21.7266066,29.058075 L14.9798139,41.9055176 Z" id="Path-5" fill="#FFFFFF"></path>
                    <circle id="Oval" fill="#FFFFFF" cx="19.1661207" cy="25.1501482" r="1.74463059"></circle>
                </g>
            </g>
        </g>
    </g>
</svg>